…
## Demonstration

```{r}
#| eval: false
library(tibble)

participants_tbl <- as_tibble(participants)
participants_tbl
```

```
# A tibble: 100 x 8
      id   age sex    county    systolic_bp diastolic_bp   bmi smoker
   <int> <int> <chr>  <chr>           <int>        <int> <dbl> <chr>
 1     1    46 Female Oakford           125           79  35.1 No
 2     2    53 Female Riverdale         123           80  27.7 No
 3     3    59 Female Oakford           130           77  28.3 No
 4     4    49 Female Millbrook         117           72  30.4 No
 5     5    61 Female Millbrook         139           79  21.5 No
 6     6    18 Female Riverdale         117           64  24.0 No
 # ... with 94 more rows
```
…
