…
```
[1] "spec_tbl_df" "tbl_df"      "tbl"         "data.frame"
```

```{r}
#| eval: false
participants
```

```
# A tibble: 100 x 8
      id   age sex    county    systolic_bp diastolic_bp   bmi smoker
   <dbl> <dbl> <chr>  <chr>           <dbl>        <dbl> <dbl> <chr>
 1     1    46 Female Oakford           125           79  35.1 No
 2     2    53 Female Riverdale         123           80  27.7 No
 3     3    59 Female Oakford           130           77  28.3 No
 # ... with 97 more rows
```
…
