…
```
[1] "Enrollment" "Follow-up"
```

```r
clinic_data <- read_excel("data/clinic_data.xlsx", sheet = "Enrollment")

clinic_data
```

```
# A tibble: 25 x 6
      id   age sex    county      systolic_bp smoker
   <dbl> <dbl> <chr>  <chr>             <dbl> <chr>
 1   101    42 Male   Oakford             129 Yes
 2   102    26 Male   Springvale          124 No
 3   103    29 Female Cedar Falls         144 No
 # ... with 22 more rows
```
…
